{
    "datasets": {
        /*"Bentley Trello": {
            "src": "https://api.trello.com/1/boards/4fcf9b9901402d9a541d9ddc?lists=all&cards=all&labels=all&key=929853f4dad0bbc0a7024e0a838a958f&token=d86de4f2480d28a46f6c8e9832fd598a6ea318aae78e0f36750e331b6c3aad50",
            "tables": {
                "boardTbl": {
                    "data": {
                        "id": "boardId",
                        "name": "boardName",
                        "url": "boardUrl"
                    }
                },
                "listsTbl": {
                    "data": {
                        "lists": {
                            "id": "listId",
                            "name": "listName"
                        }
                    }
                },
                "cardsTbl": {
                    "data": {
                        "cards": {
                            "id": "cardId",
                            "idList": "cardListId",
                            "name": "cardName",
                            "desc": "cardDescription",
                            "shortUrl": "cardUrl",
                            "idLabels": "cardLabels"
                        }
                    }
                },
                "labelsTbl": {
                    "data": {
                        "labels": {
                            "id": "labelId",
                            "name": "labelName"
                        }
                    }
                }
            }
        },*/
        "Project YYZ Trello": {
            "src": "https://api.trello.com/1/boards/zI6FN10E?lists=open&cards=all&labels=all&key=e08f9dd0e69542ad4ad2885ffd2549f1&token=661fb7405cbbb4f604134bdaedc13ddc08a5781ef8ca4ce8cfbff0573f42fa3f",
            "description": "A dataset configured to view Project YYZ's Trello board.",
            "tables": {
                "boardTbl": {
                    "data": {
                        "id": "boardId",
                        "name": "boardName",
                        "url": "boardUrl" // This is a test, only a test!
                        /* ohai, c-style comment */
                    }
                },
                "listsTbl": {
                    "data": {
                        "lists": {
                            "id": "listId",
                            "name": "listName"
                        }
                    },
                    "sorts": [
                        "listName"
                    ]
                },
                "labelsTbl": {
                    "data": {
                        "labels": {
                            "id": "labelId",
                            "name": "labelName",
                            "uses": "timesLabelUsed"
                        }
                    },
                    "sorts": [
                        "-timesLabelUsed",
                        "labelName"
                    ]
                },
                "cardsTbl": {
                    "data": {
                        "cards": {
                            "id": "cardId",
                            "idList": "cardListId",
                            "name": "cardName",
                            "desc": "cardDescription",
                            "shortUrl": "cardUrl",
                            "idLabels": "cardLabels"
                        }
                    }
                }
            },
            "joins": {
                "listsJoinedWithCards": {
                    "expr": [ "listsTbl.listId", "cardsTbl.cardListId" ]
                },
                "cardsJoinedWithLabels": {
                    "expr": [ "labelsTbl.labelId", "cardsTbl.cardLabels" ],
                    "props": {
                        "cardsTbl_cardId": "cardId",
                        "cardsTbl_cardListId": "listId",
                        "cardsTbl_cardName": "cardName",
                        "labelsTbl_labelsTbl": [
                            "labelName"
                        ]
                    },
                    "filters": [
                        "labelsTbl_labelsTbl"
                    ]
                },
                "listsJoinedWithCardsJoinedWithLabels": {
                    "expr": [ "listsTbl.listId", "cardsJoinedWithLabels.listId" ],
                    "props": {
                        "cardsJoinedWithLabels_cardName": "cardName",
                        "listsTbl_listName": "listName",
                        "cardsJoinedWithLabels_labelsTbl_labelsTbl": "cardLabels"
                    },
                    "filters": [
                        "listName",
                        "cardLabels"
                    ]
                }
            }
        },
        "Khan Academy Hotlist": {
            "src": "https://www.khanacademy.org/api/internal/scratchpads/top?casing=camel&topic_id=xffde7c31&sort=3&limit=100&page=0&lang=en&_=1436581332879",
            "description": "This dataset contains 100 of the hottest programs on Khan Academy.",
            "stylesheet": "data/ka_hotlist.css",
            "tables": {
                "misc": {
                    "data": {
                        "cursor": "hotlistCursor"
                    }
                },
                "members": {
                    "data": {
                        "scratchpads": {
                            "authorNickname": "nickname"
                        }
                    }
                },
                "scratchpads": {
                    "data": {
                        "scratchpads": {
                            "title": "Program Name",
                            "authorNickname": "Creator Name",
                            "created": "Date Created",
                            "url": "URL",
                            "sumVotesIncremented": "Number of Votes",
                            "spinoffCount": "Number of Spinoffs"
                        }
                    },
                    "filters": [
                        "Creator Name"
                    ]
                }
            }
        },
        "Recent Khan Academy Scratchpads": {
            "src": "https://www.khanacademy.org/api/internal/scratchpads/top?casing=camel&topic_id=xffde7c31&sort=2&subject=all&limit=100&page=0&lang=en&_=1462835329814",
            "description": "This dataset contains 100 of the most-recent programs that were created on Khan Academy.",
            "tables": {
                "members": {
                    "data": {
                        "scratchpads": {
                            "authorNickname": "nickname"
                        }
                    }
                },
                "scratchpads": {
                    "data": {
                        "scratchpads": {
                            "title": "Program Name",
                            "authorNickname": "Creator Name",
                            "created": "Date Created",
                            "url": "URL",
                            "sumVotesIncremented": "Number of Votes",
                            "spinoffCount": "Number of Spinoffs"
                        }
                    },
                    "filters": [
                        "Creator Name"
                    ]
                }
            }
        },
        "All Countries": {
            "src": "https://restcountries.eu/rest/v1/all",
            "description": "This dataset contains some basic information about every [known] country in the world.",
            "tables": {
                "countries": {
                    "data": {
                        "name": "Name",
                        "capital": "Capital",
                        "subregion": "Region",
                        "demonym": "Demonym",
                        "currencies": "Currencies",
                        "topLevelDomain": "TLD"
                    },
                    "filters": [
                        "Region",
                        "Currencies"
                    ]
                }
            }
        }
    }
}
